Sample number,Concentration unobtanium (mg/L),Concentration handwavium (mg/L)
1,0.0035693,0.01380331
2,0.00299365,0.01417258
3,0.00496959,0.01513649
4,0.00212646,0.00939682
5,0.00439114,0.01585561
6,0.00182631,0.01047763
7,0.0036337,0.01520823
8,0.00219289,0.01420934
9,0.00215557,0.01233417
10,0.00354235,0.0155961
11,0.0012244,0.00801787
12,0.00263555,0.016197
13,0.0040956,0.01748747
14,0.00342411,0.0130377
15,0.00378408,0.01668547
16,0.00306677,0.01072253
17,0.00382825,0.01733469
18,0.0049995,0.01698
19,0.00386611,0.01448772
20,0.00269002,0.00980952
